{
    "description": "a request to get the customer",
    "providerState": "existing customer with id 1",
    "request": {
        "method": "GET",
        "path": "customer/1"
    },
    "response": {
        "status": 200,
        "headers": {
            "Content-Type": "application/json"
        },
        "body": {
            "firstname": "Max",
            "lastname": "Mustermann"
        },
        "matchingRules": {
            "$.headers.Content-Type": {
                "match": "regex",
                "regex": "application\\/json(;.*)?"
            },
            "$.body.firstname": {
                "match": "type"
            },
            "$.body.lastname": {
                "match": "type"
            }
        }
    }
}